#define __signed_chars__ 1	/* Predefined */
#define __DATE__ "Oct 18 2021"	/* Predefined */
#define __TIME__ "13:44:05"	/* Predefined */
#define __STDC__ 1	/* Predefined */
#define __STDC_VERSION__ 199409L	/* Predefined */
#define __STDC_HOSTED__ 1	/* Predefined */
#define __TI_INT40_T__ 1	/* Predefined */
#define __TI_C99_COMPLEX_ENABLED__ 1	/* Predefined */
#define __STDC_NO_THREADS__ 1	/* Predefined */
#define __edg_front_end__ 1	/* Predefined */
#define __EDG_VERSION__ 413	/* Predefined */
#define __EDG_SIZE_TYPE__ unsigned int	/* Predefined */
#define __EDG_PTRDIFF_TYPE__ int	/* Predefined */
#define __VERSION__ "EDG gcc 4.8 mode"	/* Predefined */
#define __CHAR16_TYPE__ unsigned short	/* Predefined */
#define __CHAR32_TYPE__ unsigned int	/* Predefined */
#define __TI_COMPILER_VERSION__ 8003011	/* Predefined */
#define __COMPILER_VERSION__ 8003011	/* Predefined */
#define _TMS320C6X 1	/* Predefined */
#define __TMS320C6X__ 1	/* Predefined */
#define _TMS320C6600 1	/* Predefined */
#define _TMS320C6740 1	/* Predefined */
#define _TMS320C6700_PLUS 1	/* Predefined */
#define _TMS320C67_PLUS 1	/* Predefined */
#define _TMS320C6700 1	/* Predefined */
#define _TMS320C64_PLUS 1	/* Predefined */
#define _TMS320C6400_PLUS 1	/* Predefined */
#define _TMS320C6400 1	/* Predefined */
#define _LITTLE_ENDIAN 1	/* Predefined */
#define __TI_ELFABI__ 1	/* Predefined */
#define __TI_TLS__ 1	/* Predefined */
#define __TI_32BIT_LONG__ 1	/* Predefined */
#define __SIZE_T_TYPE__ unsigned	/* Predefined */
#define __PTRDIFF_T_TYPE__ int	/* Predefined */
#define __WCHAR_T_TYPE__ unsigned short	/* Predefined */
#define __TI_EABI__ 1	/* Predefined */
#define __ELF__ 1	/* Predefined */
#define __little_endian__ 1	/* Predefined */
#define __LITTLE_ENDIAN__ 1	/* Predefined */
#define __TI_STRICT_ANSI_MODE__ 0	/* Predefined */
#define __TI_WCHAR_T_BITS__ 16	/* Predefined */
#define __TI_GNU_ATTRIBUTE_SUPPORT__ 1	/* Predefined */
#define __TI_STRICT_FP_MODE__ 1	/* Predefined */
#define __CHAR_BIT__ 8	/* Predefined */
#define __SCHAR_MAX__ 127	/* Predefined */
#define __SHRT_MAX__ 32767	/* Predefined */
#define __INT_MAX__ 2147483647	/* Predefined */
#define __LONG_MAX__ 2147483647	/* Predefined */
#define __LONG_LONG_MAX__ 9223372036854775807	/* Predefined */
#define __SIZEOF_INT__ 4	/* Predefined */
#define __SIZEOF_SHORT__ 2	/* Predefined */
#define __SIZEOF_LONG__ 4	/* Predefined */
#define __SIZEOF_LONG_LONG__ 8	/* Predefined */
#define __SIZEOF_WCHAR_T__ 2	/* Predefined */
#define __SIZEOF_FLOAT__ 4	/* Predefined */
#define __SIZEOF_DOUBLE__ 8	/* Predefined */
#define __SIZEOF_LONG_DOUBLE__ 8	/* Predefined */
#define __SIZEOF_SIZE_T__ 4	/* Predefined */
#define __SIZEOF_WINT_T__ 2	/* Predefined */
#define __SIZEOF_PTRDIFF_T__ 4	/* Predefined */
#define __TI_NO_PARALLEL_LOADS 1
#define _INLINE 1
